<?xml version="1.0" encoding="UTF-8" standalone="no"?>
<!DOCTYPE log SYSTEM "logger.dtd">
<log>
<record>
  <date>2021-12-08T15:23:41.384340Z</date>
  <millis>1638977021384</millis>
  <nanos>340000</nanos>
  <sequence>32</sequence>
  <logger>ahmed.yanis.traceability.with.spoon.Product</logger>
  <level>INFO</level>
  <class>ahmed.yanis.traceability.with.spoon.Product</class>
  <method>toString</method>
  <thread>1</thread>
  <message>no parameters given</message>
</record>
<record>
  <date>2021-12-08T15:23:41.386732Z</date>
  <millis>1638977021386</millis>
  <nanos>732000</nanos>
  <sequence>36</sequence>
  <logger>ahmed.yanis.traceability.with.spoon.Product</logger>
  <level>INFO</level>
  <class>ahmed.yanis.traceability.with.spoon.Product</class>
  <method>getID</method>
  <thread>1</thread>
  <message>User [ID=1, name=Denis, age=23, email=denis@domain.com, password=123];no parameters given</message>
</record>
<record>
  <date>2021-12-08T15:23:41.397467Z</date>
  <millis>1638977021397</millis>
  <nanos>467000</nanos>
  <sequence>42</sequence>
  <logger>ahmed.yanis.traceability.with.spoon.Product</logger>
  <level>INFO</level>
  <class>ahmed.yanis.traceability.with.spoon.Product</class>
  <method>toString</method>
  <thread>1</thread>
  <message>no parameters given</message>
</record>
<record>
  <date>2021-12-08T15:23:41.400589Z</date>
  <millis>1638977021400</millis>
  <nanos>589000</nanos>
  <sequence>46</sequence>
  <logger>ahmed.yanis.traceability.with.spoon.Product</logger>
  <level>INFO</level>
  <class>ahmed.yanis.traceability.with.spoon.Product</class>
  <method>getID</method>
  <thread>1</thread>
  <message>User [ID=1, name=Denis, age=23, email=denis@domain.com, password=123];no parameters given</message>
</record>
<record>
  <date>2021-12-08T15:23:41.403228Z</date>
  <millis>1638977021403</millis>
  <nanos>228000</nanos>
  <sequence>52</sequence>
  <logger>ahmed.yanis.traceability.with.spoon.Product</logger>
  <level>INFO</level>
  <class>ahmed.yanis.traceability.with.spoon.Product</class>
  <method>getID</method>
  <thread>1</thread>
  <message>User [ID=1, name=Denis, age=23, email=denis@domain.com, password=123];no parameters given</message>
</record>
<record>
  <date>2021-12-08T15:23:41.405733Z</date>
  <millis>1638977021405</millis>
  <nanos>733000</nanos>
  <sequence>55</sequence>
  <logger>ahmed.yanis.traceability.with.spoon.Product</logger>
  <level>INFO</level>
  <class>ahmed.yanis.traceability.with.spoon.Product</class>
  <method>toString</method>
  <thread>1</thread>
  <message>no parameters given</message>
</record>
<record>
  <date>2021-12-08T15:23:41.407621Z</date>
  <millis>1638977021407</millis>
  <nanos>621000</nanos>
  <sequence>59</sequence>
  <logger>ahmed.yanis.traceability.with.spoon.Product</logger>
  <level>INFO</level>
  <class>ahmed.yanis.traceability.with.spoon.Product</class>
  <method>getID</method>
  <thread>1</thread>
  <message>User [ID=1, name=Denis, age=23, email=denis@domain.com, password=123];no parameters given</message>
</record>
<record>
  <date>2021-12-08T15:23:41.409940Z</date>
  <millis>1638977021409</millis>
  <nanos>940000</nanos>
  <sequence>65</sequence>
  <logger>ahmed.yanis.traceability.with.spoon.Product</logger>
  <level>INFO</level>
  <class>ahmed.yanis.traceability.with.spoon.Product</class>
  <method>getID</method>
  <thread>1</thread>
  <message>User [ID=1, name=Denis, age=23, email=denis@domain.com, password=123];no parameters given</message>
</record>
<record>
  <date>2021-12-08T15:23:41.411290Z</date>
  <millis>1638977021411</millis>
  <nanos>290000</nanos>
  <sequence>68</sequence>
  <logger>ahmed.yanis.traceability.with.spoon.Product</logger>
  <level>INFO</level>
  <class>ahmed.yanis.traceability.with.spoon.Product</class>
  <method>getID</method>
  <thread>1</thread>
  <message>User [ID=1, name=Denis, age=23, email=denis@domain.com, password=123];no parameters given</message>
</record>
<record>
  <date>2021-12-08T15:23:41.413806Z</date>
  <millis>1638977021413</millis>
  <nanos>806000</nanos>
  <sequence>71</sequence>
  <logger>ahmed.yanis.traceability.with.spoon.Product</logger>
  <level>INFO</level>
  <class>ahmed.yanis.traceability.with.spoon.Product</class>
  <method>toString</method>
  <thread>1</thread>
  <message>no parameters given</message>
</record>
<record>
  <date>2021-12-08T15:23:41.425694Z</date>
  <millis>1638977021425</millis>
  <nanos>694000</nanos>
  <sequence>75</sequence>
  <logger>ahmed.yanis.traceability.with.spoon.Product</logger>
  <level>INFO</level>
  <class>ahmed.yanis.traceability.with.spoon.Product</class>
  <method>getID</method>
  <thread>1</thread>
  <message>User [ID=1, name=Denis, age=23, email=denis@domain.com, password=123];no parameters given</message>
</record>
<record>
  <date>2021-12-08T15:23:41.428421Z</date>
  <millis>1638977021428</millis>
  <nanos>421000</nanos>
  <sequence>81</sequence>
  <logger>ahmed.yanis.traceability.with.spoon.Product</logger>
  <level>INFO</level>
  <class>ahmed.yanis.traceability.with.spoon.Product</class>
  <method>getID</method>
  <thread>1</thread>
  <message>User [ID=1, name=Denis, age=23, email=denis@domain.com, password=123];no parameters given</message>
</record>
<record>
  <date>2021-12-08T15:23:41.429938Z</date>
  <millis>1638977021429</millis>
  <nanos>938000</nanos>
  <sequence>84</sequence>
  <logger>ahmed.yanis.traceability.with.spoon.Product</logger>
  <level>INFO</level>
  <class>ahmed.yanis.traceability.with.spoon.Product</class>
  <method>getID</method>
  <thread>1</thread>
  <message>User [ID=1, name=Denis, age=23, email=denis@domain.com, password=123];no parameters given</message>
</record>
<record>
  <date>2021-12-08T15:23:41.431250Z</date>
  <millis>1638977021431</millis>
  <nanos>250000</nanos>
  <sequence>87</sequence>
  <logger>ahmed.yanis.traceability.with.spoon.Product</logger>
  <level>INFO</level>
  <class>ahmed.yanis.traceability.with.spoon.Product</class>
  <method>getID</method>
  <thread>1</thread>
  <message>User [ID=1, name=Denis, age=23, email=denis@domain.com, password=123];no parameters given</message>
</record>
<record>
  <date>2021-12-08T15:23:41.433192Z</date>
  <millis>1638977021433</millis>
  <nanos>192000</nanos>
  <sequence>90</sequence>
  <logger>ahmed.yanis.traceability.with.spoon.Product</logger>
  <level>INFO</level>
  <class>ahmed.yanis.traceability.with.spoon.Product</class>
  <method>toString</method>
  <thread>1</thread>
  <message>no parameters given</message>
</record>
<record>
  <date>2021-12-08T15:23:41.435127Z</date>
  <millis>1638977021435</millis>
  <nanos>127000</nanos>
  <sequence>94</sequence>
  <logger>ahmed.yanis.traceability.with.spoon.Product</logger>
  <level>INFO</level>
  <class>ahmed.yanis.traceability.with.spoon.Product</class>
  <method>getID</method>
  <thread>1</thread>
  <message>User [ID=1, name=Denis, age=23, email=denis@domain.com, password=123];no parameters given</message>
</record>
<record>
  <date>2021-12-08T15:23:41.437228Z</date>
  <millis>1638977021437</millis>
  <nanos>228000</nanos>
  <sequence>100</sequence>
  <logger>ahmed.yanis.traceability.with.spoon.Product</logger>
  <level>INFO</level>
  <class>ahmed.yanis.traceability.with.spoon.Product</class>
  <method>getID</method>
  <thread>1</thread>
  <message>User [ID=1, name=Denis, age=23, email=denis@domain.com, password=123];no parameters given</message>
</record>
<record>
  <date>2021-12-08T15:23:41.438253Z</date>
  <millis>1638977021438</millis>
  <nanos>253000</nanos>
  <sequence>103</sequence>
  <logger>ahmed.yanis.traceability.with.spoon.Product</logger>
  <level>INFO</level>
  <class>ahmed.yanis.traceability.with.spoon.Product</class>
  <method>getID</method>
  <thread>1</thread>
  <message>User [ID=1, name=Denis, age=23, email=denis@domain.com, password=123];no parameters given</message>
</record>
<record>
  <date>2021-12-08T15:23:41.439675Z</date>
  <millis>1638977021439</millis>
  <nanos>675000</nanos>
  <sequence>106</sequence>
  <logger>ahmed.yanis.traceability.with.spoon.Product</logger>
  <level>INFO</level>
  <class>ahmed.yanis.traceability.with.spoon.Product</class>
  <method>getID</method>
  <thread>1</thread>
  <message>User [ID=1, name=Denis, age=23, email=denis@domain.com, password=123];no parameters given</message>
</record>
<record>
  <date>2021-12-08T15:23:41.441019Z</date>
  <millis>1638977021441</millis>
  <nanos>19000</nanos>
  <sequence>109</sequence>
  <logger>ahmed.yanis.traceability.with.spoon.Product</logger>
  <level>INFO</level>
  <class>ahmed.yanis.traceability.with.spoon.Product</class>
  <method>getID</method>
  <thread>1</thread>
  <message>User [ID=1, name=Denis, age=23, email=denis@domain.com, password=123];no parameters given</message>
</record>
<record>
  <date>2021-12-08T15:23:43.995431Z</date>
  <millis>1638977023995</millis>
  <nanos>431000</nanos>
  <sequence>119</sequence>
  <logger>ahmed.yanis.traceability.with.spoon.Product</logger>
  <level>INFO</level>
  <class>ahmed.yanis.traceability.with.spoon.Product</class>
  <method>toString</method>
  <thread>1</thread>
  <message>no parameters given</message>
</record>
<record>
  <date>2021-12-08T15:23:43.995923Z</date>
  <millis>1638977023995</millis>
  <nanos>923000</nanos>
  <sequence>120</sequence>
  <logger>ahmed.yanis.traceability.with.spoon.Product</logger>
  <level>INFO</level>
  <class>ahmed.yanis.traceability.with.spoon.Product</class>
  <method>toString</method>
  <thread>1</thread>
  <message>no parameters given</message>
</record>
<record>
  <date>2021-12-08T15:23:43.996479Z</date>
  <millis>1638977023996</millis>
  <nanos>479000</nanos>
  <sequence>121</sequence>
  <logger>ahmed.yanis.traceability.with.spoon.Product</logger>
  <level>INFO</level>
  <class>ahmed.yanis.traceability.with.spoon.Product</class>
  <method>toString</method>
  <thread>1</thread>
  <message>no parameters given</message>
</record>
<record>
  <date>2021-12-08T15:23:43.997474Z</date>
  <millis>1638977023997</millis>
  <nanos>474000</nanos>
  <sequence>122</sequence>
  <logger>ahmed.yanis.traceability.with.spoon.Product</logger>
  <level>INFO</level>
  <class>ahmed.yanis.traceability.with.spoon.Product</class>
  <method>toString</method>
  <thread>1</thread>
  <message>no parameters given</message>
</record>
<record>
  <date>2021-12-08T15:23:43.998061Z</date>
  <millis>1638977023998</millis>
  <nanos>61000</nanos>
  <sequence>123</sequence>
  <logger>ahmed.yanis.traceability.with.spoon.Product</logger>
  <level>INFO</level>
  <class>ahmed.yanis.traceability.with.spoon.Product</class>
  <method>toString</method>
  <thread>1</thread>
  <message>no parameters given</message>
</record>
</log>
